#Command: "C:\Program Files\Microsoft Visual Studio 10.0\Team Tools\TraceDebugger Tools\IntelliTrace.exe" run /name:csacctg.vshost.exe_000005d8_01d10280b5145501 /logfile:CSAcctg.vshost_151009_185318.iTrace /buffersize:65536 /buffercount:512 /watch:-1 /help- /nologo+ /collectionplan:C:\Users\YowYow\AppData\Local\Microsoft\VisualStudio\10.0\TraceDebugger\Settings\c3wqu2hu.v2m /hidden-
C:\WINDOWS\MICROSOFT.NET\ASSEMBLY\GAC_32\MSCORLIB\V4.0_4.0.0.0__B77A5C561934E089\MSCORLIB.DLL
C:\WINDOWS\ASSEMBLY\GAC_MSIL\MICROSOFT.VISUALSTUDIO.HOSTINGPROCESS.UTILITIES.SYNC\10.0.0.0__B03F5F7F11D50A3A\MICROSOFT.VISUALSTUDIO.HOSTINGPROCESS.UTILITIES.SYNC.DLL
C:\WINDOWS\ASSEMBLY\GAC_MSIL\MICROSOFT.VISUALSTUDIO.DEBUGGER.RUNTIME\10.0.0.0__B03F5F7F11D50A3A\MICROSOFT.VISUALSTUDIO.DEBUGGER.RUNTIME.DLL
D:\UCORE\REPOSITORY FILES\SRAP-ACCOUNTING-SYSTEM\MCANET\BIN\X86\DEBUG\CSACCTG.VSHOST.EXE
C:\WINDOWS\MICROSOFT.NET\ASSEMBLY\GAC_MSIL\ACCESSIBILITY\V4.0_4.0.0.0__B03F5F7F11D50A3A\ACCESSIBILITY.DLL
C:\WINDOWS\ASSEMBLY\GAC_MSIL\CRYSTALDECISIONS.CRYSTALREPORTS.ENGINE\13.0.2000.0__692FBEA5521E1304\CRYSTALDECISIONS.CRYSTALREPORTS.ENGINE.DLL
C:\WINDOWS\ASSEMBLY\GAC_MSIL\CRYSTALDECISIONS.WINDOWS.FORMS\13.0.2000.0__692FBEA5521E1304\CRYSTALDECISIONS.WINDOWS.FORMS.DLL
C:\WINDOWS\MICROSOFT.NET\ASSEMBLY\GAC_MSIL\MICROSOFT.VISUALBASIC.COMPATIBILITY\V4.0_10.0.0.0__B03F5F7F11D50A3A\MICROSOFT.VISUALBASIC.COMPATIBILITY.DLL
C:\WINDOWS\ASSEMBLY\GAC_MSIL\MICROSOFT.VISUALBASIC.POWERPACKS.VS\10.0.0.0__B03F5F7F11D50A3A\MICROSOFT.VISUALBASIC.POWERPACKS.VS.DLL
C:\WINDOWS\MICROSOFT.NET\ASSEMBLY\GAC_MSIL\SYSTEM.CONFIGURATION\V4.0_4.0.0.0__B03F5F7F11D50A3A\SYSTEM.CONFIGURATION.DLL
C:\WINDOWS\MICROSOFT.NET\ASSEMBLY\GAC_32\SYSTEM.DATA\V4.0_4.0.0.0__B77A5C561934E089\SYSTEM.DATA.DLL
C:\WINDOWS\MICROSOFT.NET\ASSEMBLY\GAC_MSIL\SYSTEM.DEPLOYMENT\V4.0_4.0.0.0__B03F5F7F11D50A3A\SYSTEM.DEPLOYMENT.DLL
C:\WINDOWS\MICROSOFT.NET\ASSEMBLY\GAC_MSIL\SYSTEM.SECURITY\V4.0_4.0.0.0__B03F5F7F11D50A3A\SYSTEM.SECURITY.DLL
C:\WINDOWS\MICROSOFT.NET\ASSEMBLY\GAC_32\SYSTEM.WEB\V4.0_4.0.0.0__B03F5F7F11D50A3A\SYSTEM.WEB.DLL
C:\WINDOWS\MICROSOFT.NET\ASSEMBLY\GAC_MSIL\SYSTEM.XML\V4.0_4.0.0.0__B77A5C561934E089\SYSTEM.XML.DLL
D:\UCORE\REPOSITORY FILES\SRAP-ACCOUNTING-SYSTEM\MCANET\BIN\X86\DEBUG\CSACCTG.EXE
#Command: "C:\Program Files\Microsoft Visual Studio 10.0\Team Tools\TraceDebugger Tools\IntelliTrace.exe" run /name:csacctg.vshost.exe_000014c8_01d10280beaa02ea /logfile:CSAcctg.vshost_151009_185334.iTrace /buffersize:65536 /buffercount:512 /watch:-1 /help- /nologo+ /collectionplan:C:\Users\YowYow\AppData\Local\Microsoft\VisualStudio\10.0\TraceDebugger\Settings\ktjpivdz.us4 /hidden-
C:\WINDOWS\MICROSOFT.NET\ASSEMBLY\GAC_32\MSCORLIB\V4.0_4.0.0.0__B77A5C561934E089\MSCORLIB.DLL
C:\WINDOWS\MICROSOFT.NET\ASSEMBLY\GAC_MSIL\SYSTEM.DRAWING\V4.0_4.0.0.0__B03F5F7F11D50A3A\SYSTEM.DRAWING.DLL
C:\WINDOWS\MICROSOFT.NET\ASSEMBLY\GAC_MSIL\SYSTEM\V4.0_4.0.0.0__B77A5C561934E089\SYSTEM.DLL
C:\WINDOWS\ASSEMBLY\GAC_MSIL\MICROSOFT.VISUALSTUDIO.HOSTINGPROCESS.UTILITIES.SYNC\10.0.0.0__B03F5F7F11D50A3A\MICROSOFT.VISUALSTUDIO.HOSTINGPROCESS.UTILITIES.SYNC.DLL
C:\WINDOWS\ASSEMBLY\GAC_MSIL\MICROSOFT.VISUALSTUDIO.DEBUGGER.RUNTIME\10.0.0.0__B03F5F7F11D50A3A\MICROSOFT.VISUALSTUDIO.DEBUGGER.RUNTIME.DLL
D:\UCORE\REPOSITORY FILES\SRAP-ACCOUNTING-SYSTEM\MCANET\BIN\X86\DEBUG\CSACCTG.VSHOST.EXE
C:\WINDOWS\MICROSOFT.NET\ASSEMBLY\GAC_MSIL\ACCESSIBILITY\V4.0_4.0.0.0__B03F5F7F11D50A3A\ACCESSIBILITY.DLL
C:\WINDOWS\ASSEMBLY\GAC_MSIL\CRYSTALDECISIONS.CRYSTALREPORTS.ENGINE\13.0.2000.0__692FBEA5521E1304\CRYSTALDECISIONS.CRYSTALREPORTS.ENGINE.DLL
C:\WINDOWS\ASSEMBLY\GAC_MSIL\CRYSTALDECISIONS.REPORTSOURCE\13.0.2000.0__692FBEA5521E1304\CRYSTALDECISIONS.REPORTSOURCE.DLL
C:\WINDOWS\ASSEMBLY\GAC_MSIL\MICROSOFT.REPORTVIEWER.COMMON\10.0.0.0__B03F5F7F11D50A3A\MICROSOFT.REPORTVIEWER.COMMON.DLL
C:\WINDOWS\MICROSOFT.NET\ASSEMBLY\GAC_MSIL\SYSTEM.DESIGN\V4.0_4.0.0.0__B03F5F7F11D50A3A\SYSTEM.DESIGN.DLL
C:\WINDOWS\MICROSOFT.NET\ASSEMBLY\GAC_MSIL\SYSTEM.WEB.SERVICES\V4.0_4.0.0.0__B03F5F7F11D50A3A\SYSTEM.WEB.SERVICES.DLL
C:\WINDOWS\MICROSOFT.NET\ASSEMBLY\GAC_MSIL\SYSTEM.WINDOWS.FORMS.DATAVISUALIZATION\V4.0_4.0.0.0__31BF3856AD364E35\SYSTEM.WINDOWS.FORMS.DATAVISUALIZATION.DLL
C:\WINDOWS\ASSEMBLY\GAC\STDOLE\7.0.3300.0__B03F5F7F11D50A3A\STDOLE.DLL
